EESchema Schematic File Version 4
LIBS:PowerAmp-cache
EELAYER 26 0
EELAYER END
$Descr A4 11693 8268
encoding utf-8
Sheet 1 1
Title "Curve Tracer / Power Amplifier"
Date "2018-09-13"
Rev "0007"
Comp ""
Comment1 ""
Comment2 ""
Comment3 ""
Comment4 ""
$EndDescr
$Comp
L suf_digipot:MCP45HV51 U4
U 1 1 5B5E2B03
P 5525 3475
F 0 "U4" H 5775 3050 60  0000 C CNN
F 1 "MCP45HV51" H 5100 3900 60  0000 C CNN
F 2 "Housings_SSOP:TSSOP-14_4.4x5mm_Pitch0.65mm" H 5500 3500 60  0001 C CNN
F 3 "" H 5500 3500 60  0001 C CNN
	1    5525 3475
	1    0    0    -1  
$EndComp
$Comp
L PowerAmp-rescue:LM3886T U5
U 1 1 5B5E2B50
P 7150 3475
F 0 "U5" H 7275 3775 50  0000 C CNN
F 1 "LM3886T" H 7400 3675 50  0000 C CNN
F 2 "TO_SOT_Packages_THT:TO-220-11_Vertical_StaggeredType1" H 6950 3475 50  0001 C CIN
F 3 "" H 7150 3475 50  0001 C CNN
	1    7150 3475
	1    0    0    -1  
$EndComp
$Comp
L power:+15V #PWR01
U 1 1 5B5E2B87
P 7100 3050
F 0 "#PWR01" H 7100 2900 50  0001 C CNN
F 1 "+15V" H 7100 3190 50  0000 C CNN
F 2 "" H 7100 3050 50  0001 C CNN
F 3 "" H 7100 3050 50  0001 C CNN
	1    7100 3050
	1    0    0    -1  
$EndComp
$Comp
L power:-15V #PWR032
U 1 1 5B5E2BA1
P 7100 3925
F 0 "#PWR032" H 7100 4025 50  0001 C CNN
F 1 "-15V" H 7100 4075 50  0000 C CNN
F 2 "" H 7100 3925 50  0001 C CNN
F 3 "" H 7100 3925 50  0001 C CNN
	1    7100 3925
	-1   0    0    1   
$EndComp
$Comp
L power:-15V #PWR025
U 1 1 5B5E2BBB
P 5575 4075
F 0 "#PWR025" H 5575 4175 50  0001 C CNN
F 1 "-15V" H 5575 4225 50  0000 C CNN
F 2 "" H 5575 4075 50  0001 C CNN
F 3 "" H 5575 4075 50  0001 C CNN
	1    5575 4075
	-1   0    0    1   
$EndComp
$Comp
L power:+15V #PWR02
U 1 1 5B5E2BD5
P 5575 2875
F 0 "#PWR02" H 5575 2725 50  0001 C CNN
F 1 "+15V" H 5575 3015 50  0000 C CNN
F 2 "" H 5575 2875 50  0001 C CNN
F 3 "" H 5575 2875 50  0001 C CNN
	1    5575 2875
	1    0    0    -1  
$EndComp
$Comp
L power:GND #PWR03
U 1 1 5B5E2BEF
P 5475 4275
F 0 "#PWR03" H 5475 4025 50  0001 C CNN
F 1 "GND" H 5475 4125 50  0000 C CNN
F 2 "" H 5475 4275 50  0001 C CNN
F 3 "" H 5475 4275 50  0001 C CNN
	1    5475 4275
	1    0    0    -1  
$EndComp
$Comp
L Device:R R18
U 1 1 5B5E30C4
P 7125 4300
F 0 "R18" V 7205 4300 50  0000 C CNN
F 1 "180K" V 7125 4300 50  0000 C CNN
F 2 "Resistors_SMD:R_0603_HandSoldering" V 7055 4300 50  0001 C CNN
F 3 "" H 7125 4300 50  0001 C CNN
	1    7125 4300
	0    -1   -1   0   
$EndComp
$Comp
L power:GND #PWR05
U 1 1 5B5E3210
P 6500 4800
F 0 "#PWR05" H 6500 4550 50  0001 C CNN
F 1 "GND" H 6500 4650 50  0000 C CNN
F 2 "" H 6500 4800 50  0001 C CNN
F 3 "" H 6500 4800 50  0001 C CNN
	1    6500 4800
	1    0    0    -1  
$EndComp
$Comp
L power:GND #PWR06
U 1 1 5B5E3241
P 6050 3500
F 0 "#PWR06" H 6050 3250 50  0001 C CNN
F 1 "GND" H 6050 3350 50  0000 C CNN
F 2 "" H 6050 3500 50  0001 C CNN
F 3 "" H 6050 3500 50  0001 C CNN
	1    6050 3500
	1    0    0    -1  
$EndComp
$Comp
L Device:R R12
U 1 1 5B5F676C
P 4050 3475
F 0 "R12" V 4130 3475 50  0000 C CNN
F 1 "56K" V 4050 3475 50  0000 C CNN
F 2 "Resistors_SMD:R_0603_HandSoldering" V 3980 3475 50  0001 C CNN
F 3 "" H 4050 3475 50  0001 C CNN
	1    4050 3475
	0    1    1    0   
$EndComp
$Comp
L Device:R R11
U 1 1 5B5F6C69
P 3725 3925
F 0 "R11" V 3805 3925 50  0000 C CNN
F 1 "200K" V 3725 3925 50  0000 C CNN
F 2 "Resistors_SMD:R_0603_HandSoldering" V 3655 3925 50  0001 C CNN
F 3 "" H 3725 3925 50  0001 C CNN
	1    3725 3925
	1    0    0    -1  
$EndComp
$Comp
L power:+15V #PWR07
U 1 1 5B5F80C2
P 3975 2525
F 0 "#PWR07" H 3975 2375 50  0001 C CNN
F 1 "+15V" H 3975 2665 50  0000 C CNN
F 2 "" H 3975 2525 50  0001 C CNN
F 3 "" H 3975 2525 50  0001 C CNN
	1    3975 2525
	1    0    0    -1  
$EndComp
$Comp
L power:-15V #PWR016
U 1 1 5B5F81B2
P 3975 3250
F 0 "#PWR016" H 3975 3350 50  0001 C CNN
F 1 "-15V" H 3975 3400 50  0000 C CNN
F 2 "" H 3975 3250 50  0001 C CNN
F 3 "" H 3975 3250 50  0001 C CNN
	1    3975 3250
	-1   0    0    1   
$EndComp
Text Notes 825  3000 0    40   ~ 0
Virtual Ground 1.65V\n
Text Notes 2875 2650 0    40   ~ 0
IN: 2Vpp Sine with +1.65V offset\n(0.65V - 2.65V)
Text Notes 4050 3275 0    40   ~ 0
Gain: x1.28
Text Notes 6550 3975 0    40   ~ 0
Gain: x10
Text Notes 4400 2825 0    40   ~ 0
2.56Vpp Sine 0V offset
Text Notes 6300 2750 0    40   ~ 0
DigiPot Set x 10mV\n(0-200 x 10mV = 0-2Vpp)
Text Notes 8025 2950 0    40   ~ 0
DigiPot Set x 100mV\n(0-200 x 100mV = 0-20Vpp)
Text GLabel 8000 3475 2    40   Input ~ 0
PA_OUT
$Comp
L power:GND #PWR08
U 1 1 5B5FAF6A
P 6900 4000
F 0 "#PWR08" H 6900 3750 50  0001 C CNN
F 1 "GND" H 6900 3850 50  0000 C CNN
F 2 "" H 6900 4000 50  0001 C CNN
F 3 "" H 6900 4000 50  0001 C CNN
	1    6900 4000
	1    0    0    -1  
$EndComp
Text GLabel 1450 2700 0    40   Input ~ 0
DAC_OUT
Text GLabel 4925 3275 0    40   Input ~ 0
SDA
Text GLabel 4925 3175 0    40   Input ~ 0
SCL
$Comp
L Device:R R13
U 1 1 5B604436
P 4525 4450
F 0 "R13" V 4605 4450 50  0000 C CNN
F 1 "10K" V 4525 4450 50  0000 C CNN
F 2 "Resistors_SMD:R_0603_HandSoldering" V 4455 4450 50  0001 C CNN
F 3 "" H 4525 4450 50  0001 C CNN
	1    4525 4450
	1    0    0    -1  
$EndComp
$Comp
L Device:Jumper_NC_Small JP4
U 1 1 5B6046D6
P 4350 4000
F 0 "JP4" H 4350 4080 50  0000 C CNN
F 1 "A1" H 4200 4075 50  0000 C CNN
F 2 "Pin_Headers:Pin_Header_Straight_1x02_Pitch2.54mm" H 4350 4000 50  0001 C CNN
F 3 "" H 4350 4000 50  0001 C CNN
	1    4350 4000
	1    0    0    -1  
$EndComp
$Comp
L Device:Jumper_NC_Small JP5
U 1 1 5B604751
P 4350 4150
F 0 "JP5" H 4350 4230 50  0000 C CNN
F 1 "A0" H 4200 4225 50  0000 C CNN
F 2 "Pin_Headers:Pin_Header_Straight_1x02_Pitch2.54mm" H 4350 4150 50  0001 C CNN
F 3 "" H 4350 4150 50  0001 C CNN
	1    4350 4150
	1    0    0    -1  
$EndComp
Wire Wire Line
	5575 2875 5575 2925
Wire Wire Line
	5475 2700 5475 2925
Wire Wire Line
	5475 4025 5475 4275
Wire Wire Line
	5575 4025 5575 4075
Wire Wire Line
	6025 3275 6500 3275
Wire Wire Line
	7100 3050 7100 3125
Wire Wire Line
	7100 3825 7100 3925
Wire Wire Line
	7750 3475 7750 4300
Wire Wire Line
	7750 4300 7275 4300
Wire Wire Line
	6500 3675 6500 4300
Wire Wire Line
	6975 4300 6500 4300
Connection ~ 6500 4300
Wire Wire Line
	6500 4725 6500 4800
Wire Wire Line
	6050 3500 6050 3375
Wire Wire Line
	6050 3375 6025 3375
Wire Wire Line
	4375 2900 4475 2900
Wire Wire Line
	6050 2900 6050 3175
Wire Wire Line
	6050 3175 6025 3175
Wire Wire Line
	4475 2900 4475 3475
Wire Wire Line
	4475 3475 4200 3475
Connection ~ 4475 2900
Wire Wire Line
	3775 3000 3725 3000
Wire Wire Line
	3725 3000 3725 3475
Wire Wire Line
	3900 3475 3725 3475
Connection ~ 3725 3475
Wire Wire Line
	3725 4075 3725 4225
Wire Wire Line
	3975 3200 3975 3250
Wire Wire Line
	3975 2525 3975 2600
Wire Notes Line
	7150 2775 6300 2775
Wire Notes Line
	6300 2775 6125 3250
Wire Notes Line
	8875 2975 8025 2975
Wire Notes Line
	8025 2975 7850 3450
Wire Wire Line
	7750 3475 8000 3475
Wire Wire Line
	6900 3925 6900 4000
Wire Wire Line
	2725 2800 2825 2800
Wire Wire Line
	5025 3175 4925 3175
Wire Wire Line
	5025 3275 4925 3275
Wire Wire Line
	4525 3425 5025 3425
Wire Wire Line
	5025 3525 4700 3525
Wire Wire Line
	4450 4000 4525 4000
Connection ~ 4525 4000
Wire Wire Line
	4450 4150 4700 4150
Connection ~ 4700 4150
Wire Wire Line
	4250 4000 4100 4000
Wire Wire Line
	4100 4000 4100 4075
Wire Wire Line
	4100 4150 4250 4150
Wire Wire Line
	3950 4050 3950 4075
Wire Wire Line
	3950 4075 4100 4075
Connection ~ 4100 4075
$Comp
L power:GND #PWR010
U 1 1 5B60627C
P 4625 4700
F 0 "#PWR010" H 4625 4450 50  0001 C CNN
F 1 "GND" H 4625 4550 50  0000 C CNN
F 2 "" H 4625 4700 50  0001 C CNN
F 3 "" H 4625 4700 50  0001 C CNN
	1    4625 4700
	1    0    0    -1  
$EndComp
Wire Wire Line
	4525 4600 4525 4650
Wire Wire Line
	4525 4650 4625 4650
Wire Wire Line
	4700 4650 4700 4600
Wire Wire Line
	4625 4700 4625 4650
Connection ~ 4625 4650
$Comp
L Device:R R14
U 1 1 5B609AC7
P 4700 4450
F 0 "R14" V 4780 4450 50  0000 C CNN
F 1 "10K" V 4700 4450 50  0000 C CNN
F 2 "Resistors_SMD:R_0603_HandSoldering" V 4630 4450 50  0001 C CNN
F 3 "" H 4700 4450 50  0001 C CNN
	1    4700 4450
	1    0    0    -1  
$EndComp
$Comp
L Device:R R15
U 1 1 5B609B48
P 4875 4450
F 0 "R15" V 4955 4450 50  0000 C CNN
F 1 "10K" V 4875 4450 50  0000 C CNN
F 2 "Resistors_SMD:R_0603_HandSoldering" V 4805 4450 50  0001 C CNN
F 3 "" H 4875 4450 50  0001 C CNN
	1    4875 4450
	1    0    0    -1  
$EndComp
$Comp
L Device:R R16
U 1 1 5B609BC8
P 5025 4450
F 0 "R16" V 5105 4450 50  0000 C CNN
F 1 "10K" V 5025 4450 50  0000 C CNN
F 2 "Resistors_SMD:R_0603_HandSoldering" V 4955 4450 50  0001 C CNN
F 3 "" H 5025 4450 50  0001 C CNN
	1    5025 4450
	1    0    0    -1  
$EndComp
$Comp
L Device:R R17
U 1 1 5B609C53
P 6500 4575
F 0 "R17" V 6580 4575 50  0000 C CNN
F 1 "20K" V 6500 4575 50  0000 C CNN
F 2 "Resistors_SMD:R_0603_HandSoldering" V 6430 4575 50  0001 C CNN
F 3 "" H 6500 4575 50  0001 C CNN
	1    6500 4575
	1    0    0    -1  
$EndComp
Text GLabel 5125 4150 2    40   Input ~ 0
ENABLE
$Comp
L conn:Conn_01x05 J1
U 1 1 5B61C678
P 2675 1200
F 0 "J1" H 2675 1500 50  0000 C CNN
F 1 "CPU" H 2675 900 50  0000 C CNN
F 2 "suf_connector_ncw:CONN_NCW254-05S" H 2675 1200 50  0001 C CNN
F 3 "" H 2675 1200 50  0001 C CNN
	1    2675 1200
	1    0    0    -1  
$EndComp
$Comp
L power:GND #PWR012
U 1 1 5B61D327
P 2425 1475
F 0 "#PWR012" H 2425 1225 50  0001 C CNN
F 1 "GND" H 2425 1325 50  0000 C CNN
F 2 "" H 2425 1475 50  0001 C CNN
F 3 "" H 2425 1475 50  0001 C CNN
	1    2425 1475
	1    0    0    -1  
$EndComp
Text GLabel 2375 1300 0    40   Input ~ 0
DAC_OUT
Text GLabel 2375 1100 0    40   Input ~ 0
SDA
Text GLabel 2375 1200 0    40   Input ~ 0
SCL
Text GLabel 2375 1000 0    40   Input ~ 0
ENABLE
Wire Wire Line
	2475 1000 2375 1000
Wire Wire Line
	2475 1100 2375 1100
Wire Wire Line
	2475 1200 2375 1200
Wire Wire Line
	2475 1300 2375 1300
Wire Wire Line
	2475 1400 2425 1400
Wire Wire Line
	2425 1400 2425 1475
$Comp
L conn:Conn_01x05 J2
U 1 1 5B61D923
P 3750 1300
F 0 "J2" H 3750 1600 50  0000 C CNN
F 1 "POWER" H 3750 1000 50  0000 C CNN
F 2 "suf_connector_ncw:CONN_NCW396-05S" H 3750 1300 50  0001 C CNN
F 3 "" H 3750 1300 50  0001 C CNN
	1    3750 1300
	1    0    0    -1  
$EndComp
$Comp
L conn:Conn_01x02 J3
U 1 1 5B61F394
P 4625 1000
F 0 "J3" H 4625 1100 50  0000 C CNN
F 1 "OUT" H 4625 800 50  0000 C CNN
F 2 "suf_connector_ncw:CONN_NCW396-02S" H 4625 1000 50  0001 C CNN
F 3 "" H 4625 1000 50  0001 C CNN
	1    4625 1000
	1    0    0    -1  
$EndComp
$Comp
L power:GND #PWR013
U 1 1 5B61F4E0
P 4375 1150
F 0 "#PWR013" H 4375 900 50  0001 C CNN
F 1 "GND" H 4375 1000 50  0000 C CNN
F 2 "" H 4375 1150 50  0001 C CNN
F 3 "" H 4375 1150 50  0001 C CNN
	1    4375 1150
	1    0    0    -1  
$EndComp
Wire Wire Line
	4425 1100 4375 1100
Wire Wire Line
	4375 1100 4375 1150
Text GLabel 4350 1000 0    40   Input ~ 0
PA_OUT
Wire Wire Line
	4425 1000 4350 1000
$Comp
L Device:C C7
U 1 1 5B6207E1
P 5000 6075
F 0 "C7" H 5025 6175 50  0000 L CNN
F 1 "10uF/25V" V 4925 6150 50  0000 L CNN
F 2 "Capacitors_SMD:C_1206_HandSoldering" H 5038 5925 50  0001 C CNN
F 3 "" H 5000 6075 50  0001 C CNN
	1    5000 6075
	1    0    0    -1  
$EndComp
$Comp
L Device:C C9
U 1 1 5B620886
P 5325 6075
F 0 "C9" H 5350 6175 50  0000 L CNN
F 1 "10uF/6.3V" V 5250 6150 50  0000 L CNN
F 2 "Capacitors_SMD:C_0603_HandSoldering" H 5363 5925 50  0001 C CNN
F 3 "" H 5325 6075 50  0001 C CNN
	1    5325 6075
	1    0    0    -1  
$EndComp
$Comp
L Device:C C10
U 1 1 5B620957
P 5650 6075
F 0 "C10" H 5675 6175 50  0000 L CNN
F 1 "10uF/25V" V 5575 6150 50  0000 L CNN
F 2 "Capacitors_SMD:C_1206_HandSoldering" H 5688 5925 50  0001 C CNN
F 3 "" H 5650 6075 50  0001 C CNN
	1    5650 6075
	1    0    0    -1  
$EndComp
$Comp
L Device:C C11
U 1 1 5B6209E8
P 5650 6475
F 0 "C11" H 5675 6575 50  0000 L CNN
F 1 "10uF/25V" V 5575 6025 50  0000 L CNN
F 2 "Capacitors_SMD:C_1206_HandSoldering" H 5688 6325 50  0001 C CNN
F 3 "" H 5650 6475 50  0001 C CNN
	1    5650 6475
	1    0    0    -1  
$EndComp
$Comp
L Device:CP C12
U 1 1 5B620AA7
P 5975 6075
F 0 "C12" H 6000 6175 50  0000 L CNN
F 1 "1000uF/25V" H 6000 5975 50  0000 L CNN
F 2 "Capacitors_ThroughHole:CP_Radial_D10.0mm_P5.00mm" H 6013 5925 50  0001 C CNN
F 3 "" H 5975 6075 50  0001 C CNN
	1    5975 6075
	1    0    0    -1  
$EndComp
$Comp
L Device:CP C13
U 1 1 5B620B56
P 5975 6475
F 0 "C13" H 6000 6575 50  0000 L CNN
F 1 "1000uF/25V" H 6000 6375 50  0000 L CNN
F 2 "Capacitors_ThroughHole:CP_Radial_D10.0mm_P5.00mm" H 6013 6325 50  0001 C CNN
F 3 "" H 5975 6475 50  0001 C CNN
	1    5975 6475
	1    0    0    -1  
$EndComp
$Comp
L power:GND #PWR014
U 1 1 5B620C03
P 5325 6350
F 0 "#PWR014" H 5325 6100 50  0001 C CNN
F 1 "GND" H 5325 6200 50  0000 C CNN
F 2 "" H 5325 6350 50  0001 C CNN
F 3 "" H 5325 6350 50  0001 C CNN
	1    5325 6350
	1    0    0    -1  
$EndComp
Text Notes 6150 6900 1    40   ~ 0
LM3886
Text Notes 5525 7000 1    40   ~ 0
MCP45HV51
Wire Notes Line
	5825 5825 5825 7025
Wire Notes Line
	5175 5825 5175 7025
$Comp
L Device:C C8
U 1 1 5B623933
P 5000 6475
F 0 "C8" H 5025 6575 50  0000 L CNN
F 1 "10uF/25V" V 4950 6025 50  0000 L CNN
F 2 "Capacitors_SMD:C_1206_HandSoldering" H 5038 6325 50  0001 C CNN
F 3 "" H 5000 6475 50  0001 C CNN
	1    5000 6475
	1    0    0    -1  
$EndComp
Wire Wire Line
	5975 6225 5975 6275
Wire Wire Line
	5000 6275 5325 6275
Wire Wire Line
	5000 6225 5000 6275
Connection ~ 5000 6275
Wire Wire Line
	5325 6225 5325 6275
Connection ~ 5325 6275
Wire Wire Line
	5650 6225 5650 6275
Connection ~ 5650 6275
Connection ~ 5975 6275
Wire Notes Line
	4850 5825 4850 7025
Text Notes 5150 6900 1    40   ~ 0
OPA2197
$Comp
L power:+15V #PWR015
U 1 1 5B628588
P 5975 5625
F 0 "#PWR015" H 5975 5475 50  0001 C CNN
F 1 "+15V" H 5975 5765 50  0000 C CNN
F 2 "" H 5975 5625 50  0001 C CNN
F 3 "" H 5975 5625 50  0001 C CNN
	1    5975 5625
	1    0    0    -1  
$EndComp
$Comp
L power:-15V #PWR027
U 1 1 5B628623
P 5975 6800
F 0 "#PWR027" H 5975 6900 50  0001 C CNN
F 1 "-15V" H 5975 6950 50  0000 C CNN
F 2 "" H 5975 6800 50  0001 C CNN
F 3 "" H 5975 6800 50  0001 C CNN
	1    5975 6800
	-1   0    0    1   
$EndComp
Wire Wire Line
	5000 5925 5000 5775
Wire Wire Line
	5000 5775 5650 5775
Wire Wire Line
	5975 5625 5975 5775
Wire Wire Line
	5650 5925 5650 5775
Connection ~ 5650 5775
Connection ~ 5975 5775
Wire Wire Line
	5000 6625 5000 6725
Wire Wire Line
	5000 6725 5650 6725
Wire Wire Line
	5975 6625 5975 6725
Wire Wire Line
	5650 6625 5650 6725
Connection ~ 5650 6725
Connection ~ 5975 6725
Wire Wire Line
	5325 5700 5325 5925
$Comp
L power:+15V #PWR017
U 1 1 5B62B1A5
P 3500 1025
F 0 "#PWR017" H 3500 875 50  0001 C CNN
F 1 "+15V" H 3500 1165 50  0000 C CNN
F 2 "" H 3500 1025 50  0001 C CNN
F 3 "" H 3500 1025 50  0001 C CNN
	1    3500 1025
	1    0    0    -1  
$EndComp
$Comp
L power:GND #PWR020
U 1 1 5B62B3D9
P 3300 1575
F 0 "#PWR020" H 3300 1325 50  0001 C CNN
F 1 "GND" H 3300 1425 50  0000 C CNN
F 2 "" H 3300 1575 50  0001 C CNN
F 3 "" H 3300 1575 50  0001 C CNN
	1    3300 1575
	1    0    0    -1  
$EndComp
$Comp
L power:-15V #PWR0102
U 1 1 5B62B517
P 3500 1575
F 0 "#PWR0102" H 3500 1675 50  0001 C CNN
F 1 "-15V" H 3500 1725 50  0000 C CNN
F 2 "" H 3500 1575 50  0001 C CNN
F 3 "" H 3500 1575 50  0001 C CNN
	1    3500 1575
	-1   0    0    1   
$EndComp
Wire Wire Line
	3550 1500 3500 1500
Wire Wire Line
	3500 1500 3500 1575
Wire Wire Line
	3550 1400 3300 1400
Wire Wire Line
	3300 1400 3300 1575
Wire Wire Line
	3550 1100 3500 1100
Wire Wire Line
	3500 1100 3500 1025
Wire Wire Line
	3550 1200 3100 1200
Wire Wire Line
	3100 1200 3100 925 
$Comp
L power:GNDREF #PWR021
U 1 1 5B675DAA
P 3050 1575
F 0 "#PWR021" H 3050 1325 50  0001 C CNN
F 1 "GNDREF" H 3050 1425 50  0000 C CNN
F 2 "" H 3050 1575 50  0001 C CNN
F 3 "" H 3050 1575 50  0001 C CNN
	1    3050 1575
	1    0    0    -1  
$EndComp
Wire Wire Line
	3550 1300 3050 1300
Wire Wire Line
	3050 1300 3050 1575
$Comp
L conn:Conn_01x02 J4
U 1 1 5B67793B
P 1750 1050
F 0 "J4" H 1750 1200 50  0000 C CNN
F 1 "IN" V 1850 1050 50  0000 C CNN
F 2 "suf_connector_ncw:CONN_NCW254-02S" H 1750 1050 50  0001 C CNN
F 3 "" H 1750 1050 50  0001 C CNN
	1    1750 1050
	1    0    0    -1  
$EndComp
$Comp
L power:GND #PWR022
U 1 1 5B677A2C
P 1500 1225
F 0 "#PWR022" H 1500 975 50  0001 C CNN
F 1 "GND" H 1500 1075 50  0000 C CNN
F 2 "" H 1500 1225 50  0001 C CNN
F 3 "" H 1500 1225 50  0001 C CNN
	1    1500 1225
	1    0    0    -1  
$EndComp
Text GLabel 1450 1050 0    40   Input ~ 0
DAC_OUT
Wire Wire Line
	1550 1050 1450 1050
Wire Wire Line
	1550 1150 1500 1150
Wire Wire Line
	1500 1150 1500 1225
$Comp
L linear:TL072 U1
U 2 1 5B6BC9D0
P 4075 2900
F 0 "U1" H 4075 3100 50  0000 L CNN
F 1 "OPA2197" H 4075 2700 50  0000 L CNN
F 2 "Housings_SOIC:SOIC-8_3.9x4.9mm_Pitch1.27mm" H 4075 2900 50  0001 C CNN
F 3 "" H 4075 2900 50  0001 C CNN
	2    4075 2900
	1    0    0    -1  
$EndComp
$Comp
L linear:TL072 U1
U 1 1 5B6BCA8F
P 2425 2800
F 0 "U1" H 2425 3000 50  0000 L CNN
F 1 "OPA2197" H 2425 2600 50  0000 L CNN
F 2 "Housings_SOIC:SOIC-8_3.9x4.9mm_Pitch1.27mm" H 2425 2800 50  0001 C CNN
F 3 "" H 2425 2800 50  0001 C CNN
	1    2425 2800
	1    0    0    -1  
$EndComp
$Comp
L power:GND #PWR023
U 1 1 5B6BCD4D
P 3725 4225
F 0 "#PWR023" H 3725 3975 50  0001 C CNN
F 1 "GND" H 3725 4075 50  0000 C CNN
F 2 "" H 3725 4225 50  0001 C CNN
F 3 "" H 3725 4225 50  0001 C CNN
	1    3725 4225
	1    0    0    -1  
$EndComp
$Comp
L Device:R R4
U 1 1 5B6CC133
P 2575 3200
F 0 "R4" V 2655 3200 50  0000 C CNN
F 1 "100K" V 2575 3200 50  0000 C CNN
F 2 "Resistors_SMD:R_0603_HandSoldering" V 2505 3200 50  0001 C CNN
F 3 "" H 2575 3200 50  0001 C CNN
	1    2575 3200
	0    1    1    0   
$EndComp
$Comp
L Device:R R2
U 1 1 5B6CC22B
P 1775 2900
F 0 "R2" V 1855 2900 50  0000 C CNN
F 1 "100K" V 1775 2900 50  0000 C CNN
F 2 "Resistors_SMD:R_0603_HandSoldering" V 1705 2900 50  0001 C CNN
F 3 "" H 1775 2900 50  0001 C CNN
	1    1775 2900
	0    1    1    0   
$EndComp
$Comp
L Device:R R1
U 1 1 5B6CC2B2
P 1775 2700
F 0 "R1" V 1855 2700 50  0000 C CNN
F 1 "100K" V 1775 2700 50  0000 C CNN
F 2 "Resistors_SMD:R_0603_HandSoldering" V 1705 2700 50  0001 C CNN
F 3 "" H 1775 2700 50  0001 C CNN
	1    1775 2700
	0    1    1    0   
$EndComp
$Comp
L Device:R R3
U 1 1 5B6CC36E
P 2000 3225
F 0 "R3" V 2080 3225 50  0000 C CNN
F 1 "100K" V 2000 3225 50  0000 C CNN
F 2 "Resistors_SMD:R_0603_HandSoldering" V 1930 3225 50  0001 C CNN
F 3 "" H 2000 3225 50  0001 C CNN
	1    2000 3225
	-1   0    0    1   
$EndComp
$Comp
L power:GNDREF #PWR024
U 1 1 5B6CC4D6
P 1550 3025
F 0 "#PWR024" H 1550 2775 50  0001 C CNN
F 1 "GNDREF" H 1550 2875 50  0000 C CNN
F 2 "" H 1550 3025 50  0001 C CNN
F 3 "" H 1550 3025 50  0001 C CNN
	1    1550 3025
	1    0    0    -1  
$EndComp
$Comp
L power:GND #PWR0103
U 1 1 5B6CC55C
P 2000 3475
F 0 "#PWR0103" H 2000 3225 50  0001 C CNN
F 1 "GND" H 2000 3325 50  0000 C CNN
F 2 "" H 2000 3475 50  0001 C CNN
F 3 "" H 2000 3475 50  0001 C CNN
	1    2000 3475
	1    0    0    -1  
$EndComp
$Comp
L power:-15V #PWR0104
U 1 1 5B6CC5BE
P 2325 3475
F 0 "#PWR0104" H 2325 3575 50  0001 C CNN
F 1 "-15V" H 2325 3625 50  0000 C CNN
F 2 "" H 2325 3475 50  0001 C CNN
F 3 "" H 2325 3475 50  0001 C CNN
	1    2325 3475
	-1   0    0    1   
$EndComp
$Comp
L power:+15V #PWR026
U 1 1 5B6CC620
P 2325 2400
F 0 "#PWR026" H 2325 2250 50  0001 C CNN
F 1 "+15V" H 2325 2540 50  0000 C CNN
F 2 "" H 2325 2400 50  0001 C CNN
F 3 "" H 2325 2400 50  0001 C CNN
	1    2325 2400
	1    0    0    -1  
$EndComp
Wire Wire Line
	1925 2700 2000 2700
Wire Wire Line
	1925 2900 2100 2900
Wire Wire Line
	2000 3075 2000 2700
Connection ~ 2000 2700
Wire Wire Line
	2000 3375 2000 3475
Wire Wire Line
	2100 2900 2100 3200
Wire Wire Line
	2100 3200 2425 3200
Connection ~ 2100 2900
Wire Wire Line
	2725 3200 2825 3200
Wire Wire Line
	2825 3200 2825 2800
Connection ~ 2825 2800
Wire Wire Line
	1625 2900 1550 2900
Wire Wire Line
	1550 2900 1550 3025
Wire Wire Line
	1450 2700 1625 2700
Wire Wire Line
	2325 2400 2325 2500
Wire Wire Line
	2325 3100 2325 3475
Wire Wire Line
	6500 4300 6500 4425
Wire Wire Line
	4475 2900 6050 2900
Wire Wire Line
	3725 3475 3725 3700
Wire Wire Line
	4525 4000 4525 4300
Wire Wire Line
	4700 4150 4700 4300
Wire Wire Line
	4100 4075 4100 4150
Wire Wire Line
	4625 4650 4700 4650
Wire Wire Line
	5000 6275 5000 6325
Wire Wire Line
	5325 6275 5650 6275
Wire Wire Line
	5325 6275 5325 6350
Wire Wire Line
	5650 6275 5650 6325
Wire Wire Line
	5650 6275 5975 6275
Wire Wire Line
	5975 6275 5975 6325
Wire Wire Line
	5650 5775 5975 5775
Wire Wire Line
	5975 5775 5975 5925
Wire Wire Line
	5650 6725 5975 6725
Wire Wire Line
	5975 6725 5975 6800
Wire Wire Line
	2000 2700 2125 2700
Wire Wire Line
	2100 2900 2125 2900
Wire Wire Line
	2825 2800 3075 2800
$Comp
L Device:CP C1
U 1 1 5B725540
P 7550 3875
F 0 "C1" H 7675 3800 50  0000 R CNN
F 1 "100uF/35V" V 7700 4275 50  0000 R CNN
F 2 "Capacitors_SMD:CP_Elec_6.3x7.7" H 7588 3725 50  0001 C CNN
F 3 "~" H 7550 3875 50  0001 C CNN
	1    7550 3875
	1    0    0    1   
$EndComp
$Comp
L Device:R R5
U 1 1 5B725E9A
P 7300 3950
F 0 "R5" V 7380 3950 50  0000 C CNN
F 1 "10K" V 7300 3950 50  0000 C CNN
F 2 "Resistors_SMD:R_0603_HandSoldering" V 7230 3950 50  0001 C CNN
F 3 "" H 7300 3950 50  0001 C CNN
	1    7300 3950
	1    0    0    -1  
$EndComp
$Comp
L power:-15V #PWR018
U 1 1 5B725F5D
P 7300 4375
F 0 "#PWR018" H 7300 4475 50  0001 C CNN
F 1 "-15V" H 7300 4525 50  0000 C CNN
F 2 "" H 7300 4375 50  0001 C CNN
F 3 "" H 7300 4375 50  0001 C CNN
	1    7300 4375
	-1   0    0    1   
$EndComp
$Comp
L power:GND #PWR028
U 1 1 5B726024
P 7550 4075
F 0 "#PWR028" H 7550 3825 50  0001 C CNN
F 1 "GND" H 7550 3925 50  0000 C CNN
F 2 "" H 7550 4075 50  0001 C CNN
F 3 "" H 7550 4075 50  0001 C CNN
	1    7550 4075
	1    0    0    -1  
$EndComp
Wire Wire Line
	7300 3725 7300 3800
Wire Wire Line
	7300 4100 7300 4375
Wire Wire Line
	7300 3725 7550 3725
Connection ~ 7300 3725
Wire Wire Line
	7550 4025 7550 4075
$Comp
L power:+5V #PWR0101
U 1 1 5B89CA78
P 5475 2700
F 0 "#PWR0101" H 5475 2550 50  0001 C CNN
F 1 "+5V" H 5490 2873 50  0000 C CNN
F 2 "" H 5475 2700 50  0001 C CNN
F 3 "" H 5475 2700 50  0001 C CNN
	1    5475 2700
	1    0    0    -1  
$EndComp
$Comp
L power:+5V #PWR0105
U 1 1 5B89CAD8
P 3100 925
F 0 "#PWR0105" H 3100 775 50  0001 C CNN
F 1 "+5V" H 3115 1098 50  0000 C CNN
F 2 "" H 3100 925 50  0001 C CNN
F 3 "" H 3100 925 50  0001 C CNN
	1    3100 925 
	1    0    0    -1  
$EndComp
$Comp
L power:+5V #PWR0106
U 1 1 5B89CB38
P 5325 5700
F 0 "#PWR0106" H 5325 5550 50  0001 C CNN
F 1 "+5V" H 5340 5873 50  0000 C CNN
F 2 "" H 5325 5700 50  0001 C CNN
F 3 "" H 5325 5700 50  0001 C CNN
	1    5325 5700
	1    0    0    -1  
$EndComp
$Comp
L power:+5V #PWR0108
U 1 1 5B8BC731
P 3950 4050
F 0 "#PWR0108" H 3950 3900 50  0001 C CNN
F 1 "+5V" H 3965 4223 50  0000 C CNN
F 2 "" H 3950 4050 50  0001 C CNN
F 3 "" H 3950 4050 50  0001 C CNN
	1    3950 4050
	1    0    0    -1  
$EndComp
Wire Wire Line
	3375 2800 3775 2800
$Comp
L Device:R R6
U 1 1 5B95061E
P 3225 2800
F 0 "R6" V 3305 2800 50  0000 C CNN
F 1 "43K" V 3225 2800 50  0000 C CNN
F 2 "Resistors_SMD:R_0603_HandSoldering" V 3155 2800 50  0001 C CNN
F 3 "" H 3225 2800 50  0001 C CNN
	1    3225 2800
	0    1    1    0   
$EndComp
Wire Wire Line
	5025 3775 5025 4150
Wire Wire Line
	4875 3675 5025 3675
Wire Wire Line
	4525 3425 4525 4000
Wire Wire Line
	4700 3525 4700 4150
$Comp
L Device:C C2
U 1 1 5B98E0FC
P 4050 3700
F 0 "C2" V 4125 3575 50  0000 C CNN
F 1 "10pF" V 4125 3850 50  0000 C CNN
F 2 "Capacitors_SMD:C_0603_HandSoldering" H 4088 3550 50  0001 C CNN
F 3 "~" H 4050 3700 50  0001 C CNN
	1    4050 3700
	0    1    1    0   
$EndComp
Wire Wire Line
	3900 3700 3725 3700
Connection ~ 3725 3700
Wire Wire Line
	3725 3700 3725 3775
Wire Wire Line
	4200 3700 4475 3700
Wire Wire Line
	4475 3700 4475 3475
Connection ~ 4475 3475
Wire Wire Line
	4875 3675 4875 4300
Wire Wire Line
	4700 4650 4875 4650
Wire Wire Line
	5025 4650 5025 4600
Connection ~ 4700 4650
Wire Wire Line
	4875 4600 4875 4650
Connection ~ 4875 4650
Wire Wire Line
	4875 4650 5025 4650
Wire Wire Line
	5025 4150 5125 4150
Connection ~ 5025 4150
Wire Wire Line
	5025 4150 5025 4300
$EndSCHEMATC
