EESchema Schematic File Version 4
LIBS:power
LIBS:device
LIBS:transistors
LIBS:conn
LIBS:linear
LIBS:regul
LIBS:74xx
LIBS:cmos4000
LIBS:adc-dac
LIBS:memory
LIBS:xilinx
LIBS:microcontrollers
LIBS:dsp
LIBS:microchip
LIBS:analog_switches
LIBS:motorola
LIBS:texas
LIBS:intel
LIBS:audio
LIBS:interface
LIBS:digital-audio
LIBS:philips
LIBS:display
LIBS:cypress
LIBS:siliconi
LIBS:opto
LIBS:atmel
LIBS:contrib
LIBS:valves
LIBS:stm32
LIBS:I2C-cache
EELAYER 26 0
EELAYER END
$Descr A4 11693 8268
encoding utf-8
Sheet 1 1
Title "Curve Tracer / Processor Board"
Date ""
Rev "0001"
Comp ""
Comment1 ""
Comment2 ""
Comment3 ""
Comment4 ""
$EndDescr
$Comp
L texas:PCA9306 U2
U 1 1 5B95A266
P 2950 1925
F 0 "U2" H 2675 2400 50  0000 C CNN
F 1 "PCA9306" H 3175 1450 50  0000 C CNN
F 2 "Housings_SSOP:SSOP-8_2.95x2.8mm_Pitch0.65mm" H 2550 2275 50  0001 C CNN
F 3 "http://www.ti.com/lit/ds/symlink/pca9306.pdf" H 2650 2375 50  0001 C CNN
	1    2950 1925
	1    0    0    -1  
$EndComp
$Comp
L power:GND #PWR0105
U 1 1 5B95A2C4
P 2950 2525
F 0 "#PWR0105" H 2950 2275 50  0001 C CNN
F 1 "GND" H 2955 2352 50  0000 C CNN
F 2 "" H 2950 2525 50  0001 C CNN
F 3 "" H 2950 2525 50  0001 C CNN
	1    2950 2525
	1    0    0    -1  
$EndComp
Wire Wire Line
	2950 2425 2950 2525
Text GLabel 2450 1925 0    50   Input ~ 0
SCL_33
Text GLabel 2450 2025 0    50   Input ~ 0
SDA_33
Wire Wire Line
	2450 1925 2550 1925
Wire Wire Line
	2450 2025 2550 2025
Wire Wire Line
	3050 1425 3050 1375
Wire Wire Line
	3050 1375 3400 1375
Wire Wire Line
	3400 1375 3400 1825
Wire Wire Line
	3400 1825 3350 1825
$Comp
L Device:R R1
U 1 1 5B95ABB2
P 3050 1150
F 0 "R1" H 3120 1196 50  0000 L CNN
F 1 "220K" H 3120 1105 50  0000 L CNN
F 2 "Resistors_SMD:R_0603_HandSoldering" V 2980 1150 50  0001 C CNN
F 3 "~" H 3050 1150 50  0001 C CNN
	1    3050 1150
	1    0    0    -1  
$EndComp
Wire Wire Line
	3050 1300 3050 1375
Connection ~ 3050 1375
Wire Wire Line
	3050 925  3050 975 
$Comp
L power:+3.3V #PWR0107
U 1 1 5B95B1A4
P 2850 1350
F 0 "#PWR0107" H 2850 1200 50  0001 C CNN
F 1 "+3.3V" H 2865 1523 50  0000 C CNN
F 2 "" H 2850 1350 50  0001 C CNN
F 3 "" H 2850 1350 50  0001 C CNN
	1    2850 1350
	1    0    0    -1  
$EndComp
Wire Wire Line
	2850 1350 2850 1425
$Comp
L Device:R R2
U 1 1 5B95B4D4
P 3500 1675
F 0 "R2" H 3525 1825 50  0000 L CNN
F 1 "10K" H 3525 1525 50  0000 L CNN
F 2 "Resistors_SMD:R_0603_HandSoldering" V 3430 1675 50  0001 C CNN
F 3 "~" H 3500 1675 50  0001 C CNN
	1    3500 1675
	1    0    0    -1  
$EndComp
$Comp
L Device:R R3
U 1 1 5B95B568
P 3700 1675
F 0 "R3" H 3725 1825 50  0000 L CNN
F 1 "10K" H 3725 1525 50  0000 L CNN
F 2 "Resistors_SMD:R_0603_HandSoldering" V 3630 1675 50  0001 C CNN
F 3 "~" H 3700 1675 50  0001 C CNN
	1    3700 1675
	1    0    0    -1  
$EndComp
Wire Wire Line
	3050 975  3500 975 
Wire Wire Line
	3700 975  3700 1525
Connection ~ 3050 975 
Wire Wire Line
	3050 975  3050 1000
Wire Wire Line
	3500 1525 3500 975 
Connection ~ 3500 975 
Wire Wire Line
	3500 975  3700 975 
Text GLabel 3775 2025 2    50   Input ~ 0
SDA_50
Text GLabel 3775 1925 2    50   Input ~ 0
SCL_50
Wire Wire Line
	3350 1925 3500 1925
Wire Wire Line
	3350 2025 3700 2025
Wire Wire Line
	3500 1825 3500 1925
Connection ~ 3500 1925
Wire Wire Line
	3500 1925 3775 1925
Wire Wire Line
	3700 1825 3700 2025
Connection ~ 3700 2025
Wire Wire Line
	3700 2025 3775 2025
$Comp
L power:+5V #PWR0120
U 1 1 5BC043C3
P 550 6475
F 0 "#PWR0120" H 550 6325 50  0001 C CNN
F 1 "+5V" H 565 6648 50  0000 C CNN
F 2 "" H 550 6475 50  0001 C CNN
F 3 "" H 550 6475 50  0001 C CNN
	1    550  6475
	1    0    0    -1  
$EndComp
Wire Wire Line
	550  6525 550  6475
$Comp
L conn:Conn_01x05 J1
U 1 1 5BE859AC
P 850 1325
F 0 "J1" H 770 900 50  0000 C CNN
F 1 "WS_I2C" H 770 991 50  0000 C CNN
F 2 "Pin_Headers:Pin_Header_Angled_1x05_Pitch2.54mm" H 850 1325 50  0001 C CNN
F 3 "~" H 850 1325 50  0001 C CNN
	1    850  1325
	-1   0    0    1   
$EndComp
$Comp
L power:+3.3V #PWR03
U 1 1 5BE85A2F
P 1225 1000
F 0 "#PWR03" H 1225 850 50  0001 C CNN
F 1 "+3.3V" H 1240 1173 50  0000 C CNN
F 2 "" H 1225 1000 50  0001 C CNN
F 3 "" H 1225 1000 50  0001 C CNN
	1    1225 1000
	1    0    0    -1  
$EndComp
$Comp
L power:GND #PWR04
U 1 1 5BE85A5D
P 1225 1650
F 0 "#PWR04" H 1225 1400 50  0001 C CNN
F 1 "GND" H 1230 1477 50  0000 C CNN
F 2 "" H 1225 1650 50  0001 C CNN
F 3 "" H 1225 1650 50  0001 C CNN
	1    1225 1650
	1    0    0    -1  
$EndComp
Text GLabel 1350 1425 2    50   Input ~ 0
SCL_33
Text GLabel 1350 1325 2    50   Input ~ 0
SDA_33
Wire Wire Line
	1050 1225 1225 1225
Wire Wire Line
	1225 1225 1225 1650
Wire Wire Line
	1050 1125 1225 1125
Wire Wire Line
	1225 1125 1225 1000
Wire Wire Line
	1350 1325 1050 1325
Wire Wire Line
	1350 1425 1050 1425
$Comp
L power:VCC #PWR09
U 1 1 5BE86669
P 3050 925
F 0 "#PWR09" H 3050 775 50  0001 C CNN
F 1 "VCC" H 3067 1098 50  0000 C CNN
F 2 "" H 3050 925 50  0001 C CNN
F 3 "" H 3050 925 50  0001 C CNN
	1    3050 925 
	1    0    0    -1  
$EndComp
$Comp
L conn:Conn_01x04 J3
U 1 1 5BE86A75
P 5375 1125
F 0 "J3" H 5350 1325 50  0000 L CNN
F 1 "I2C_33" H 5250 800 50  0000 L CNN
F 2 "Pin_Headers:Pin_Header_Straight_1x04_Pitch2.00mm" H 5375 1125 50  0001 C CNN
F 3 "~" H 5375 1125 50  0001 C CNN
	1    5375 1125
	1    0    0    -1  
$EndComp
Text GLabel 4975 1125 0    50   Input ~ 0
SDA_33
Text GLabel 4975 1025 0    50   Input ~ 0
SCL_33
$Comp
L power:+3.3V #PWR010
U 1 1 5BE86C0D
P 5075 925
F 0 "#PWR010" H 5075 775 50  0001 C CNN
F 1 "+3.3V" H 5090 1098 50  0000 C CNN
F 2 "" H 5075 925 50  0001 C CNN
F 3 "" H 5075 925 50  0001 C CNN
	1    5075 925 
	1    0    0    -1  
$EndComp
$Comp
L power:GND #PWR011
U 1 1 5BE86C2A
P 5075 1400
F 0 "#PWR011" H 5075 1150 50  0001 C CNN
F 1 "GND" H 5080 1227 50  0000 C CNN
F 2 "" H 5075 1400 50  0001 C CNN
F 3 "" H 5075 1400 50  0001 C CNN
	1    5075 1400
	1    0    0    -1  
$EndComp
Wire Wire Line
	5075 925  5075 1225
Wire Wire Line
	5075 1225 5175 1225
Wire Wire Line
	5175 1325 5075 1325
Wire Wire Line
	5075 1325 5075 1400
Wire Wire Line
	4975 1125 5175 1125
Wire Wire Line
	4975 1025 5175 1025
$Comp
L conn:Conn_01x04 J4
U 1 1 5BE87E20
P 5375 2100
F 0 "J4" H 5350 2300 50  0000 L CNN
F 1 "I2C_50" H 5250 1775 50  0000 L CNN
F 2 "Pin_Headers:Pin_Header_Straight_1x04_Pitch2.00mm" H 5375 2100 50  0001 C CNN
F 3 "~" H 5375 2100 50  0001 C CNN
	1    5375 2100
	1    0    0    -1  
$EndComp
Text GLabel 4975 2100 0    50   Input ~ 0
SDA_50
Text GLabel 4975 2000 0    50   Input ~ 0
SCL_50
$Comp
L power:GND #PWR013
U 1 1 5BE87E2E
P 5075 2375
F 0 "#PWR013" H 5075 2125 50  0001 C CNN
F 1 "GND" H 5080 2202 50  0000 C CNN
F 2 "" H 5075 2375 50  0001 C CNN
F 3 "" H 5075 2375 50  0001 C CNN
	1    5075 2375
	1    0    0    -1  
$EndComp
Wire Wire Line
	5075 1900 5075 2200
Wire Wire Line
	5075 2200 5175 2200
Wire Wire Line
	5175 2300 5075 2300
Wire Wire Line
	5075 2300 5075 2375
Wire Wire Line
	4975 2100 5175 2100
Wire Wire Line
	4975 2000 5175 2000
$Comp
L power:VCC #PWR012
U 1 1 5BE889EF
P 5075 1900
F 0 "#PWR012" H 5075 1750 50  0001 C CNN
F 1 "VCC" H 5092 2073 50  0000 C CNN
F 2 "" H 5075 1900 50  0001 C CNN
F 3 "" H 5075 1900 50  0001 C CNN
	1    5075 1900
	1    0    0    -1  
$EndComp
$Comp
L conn:Conn_01x04 J5
U 1 1 5BE88A3D
P 6350 1125
F 0 "J5" H 6325 1325 50  0000 L CNN
F 1 "I2C_33" H 6225 800 50  0000 L CNN
F 2 "Pin_Headers:Pin_Header_Straight_1x04_Pitch2.00mm" H 6350 1125 50  0001 C CNN
F 3 "~" H 6350 1125 50  0001 C CNN
	1    6350 1125
	1    0    0    -1  
$EndComp
Text GLabel 5950 1125 0    50   Input ~ 0
SDA_33
Text GLabel 5950 1025 0    50   Input ~ 0
SCL_33
$Comp
L power:+3.3V #PWR014
U 1 1 5BE88A45
P 6050 925
F 0 "#PWR014" H 6050 775 50  0001 C CNN
F 1 "+3.3V" H 6065 1098 50  0000 C CNN
F 2 "" H 6050 925 50  0001 C CNN
F 3 "" H 6050 925 50  0001 C CNN
	1    6050 925 
	1    0    0    -1  
$EndComp
$Comp
L power:GND #PWR015
U 1 1 5BE88A4B
P 6050 1400
F 0 "#PWR015" H 6050 1150 50  0001 C CNN
F 1 "GND" H 6055 1227 50  0000 C CNN
F 2 "" H 6050 1400 50  0001 C CNN
F 3 "" H 6050 1400 50  0001 C CNN
	1    6050 1400
	1    0    0    -1  
$EndComp
Wire Wire Line
	6050 925  6050 1225
Wire Wire Line
	6050 1225 6150 1225
Wire Wire Line
	6150 1325 6050 1325
Wire Wire Line
	6050 1325 6050 1400
Wire Wire Line
	5950 1125 6150 1125
Wire Wire Line
	5950 1025 6150 1025
$Comp
L conn:Conn_01x04 J6
U 1 1 5BE88A57
P 6350 2100
F 0 "J6" H 6325 2300 50  0000 L CNN
F 1 "I2C_50" H 6225 1775 50  0000 L CNN
F 2 "Pin_Headers:Pin_Header_Straight_1x04_Pitch2.00mm" H 6350 2100 50  0001 C CNN
F 3 "~" H 6350 2100 50  0001 C CNN
	1    6350 2100
	1    0    0    -1  
$EndComp
Text GLabel 5950 2100 0    50   Input ~ 0
SDA_50
Text GLabel 5950 2000 0    50   Input ~ 0
SCL_50
$Comp
L power:GND #PWR017
U 1 1 5BE88A5F
P 6050 2375
F 0 "#PWR017" H 6050 2125 50  0001 C CNN
F 1 "GND" H 6055 2202 50  0000 C CNN
F 2 "" H 6050 2375 50  0001 C CNN
F 3 "" H 6050 2375 50  0001 C CNN
	1    6050 2375
	1    0    0    -1  
$EndComp
Wire Wire Line
	6050 1900 6050 2200
Wire Wire Line
	6050 2200 6150 2200
Wire Wire Line
	6150 2300 6050 2300
Wire Wire Line
	6050 2300 6050 2375
Wire Wire Line
	5950 2100 6150 2100
Wire Wire Line
	5950 2000 6150 2000
$Comp
L power:VCC #PWR016
U 1 1 5BE88A6B
P 6050 1900
F 0 "#PWR016" H 6050 1750 50  0001 C CNN
F 1 "VCC" H 6067 2073 50  0000 C CNN
F 2 "" H 6050 1900 50  0001 C CNN
F 3 "" H 6050 1900 50  0001 C CNN
	1    6050 1900
	1    0    0    -1  
$EndComp
$Comp
L conn:Conn_01x04 J7
U 1 1 5BE89454
P 7400 1125
F 0 "J7" H 7375 1325 50  0000 L CNN
F 1 "I2C_33" H 7275 800 50  0000 L CNN
F 2 "Pin_Headers:Pin_Header_Straight_1x04_Pitch2.00mm" H 7400 1125 50  0001 C CNN
F 3 "~" H 7400 1125 50  0001 C CNN
	1    7400 1125
	1    0    0    -1  
$EndComp
Text GLabel 7000 1125 0    50   Input ~ 0
SDA_33
Text GLabel 7000 1025 0    50   Input ~ 0
SCL_33
$Comp
L power:+3.3V #PWR018
U 1 1 5BE8945C
P 7100 925
F 0 "#PWR018" H 7100 775 50  0001 C CNN
F 1 "+3.3V" H 7115 1098 50  0000 C CNN
F 2 "" H 7100 925 50  0001 C CNN
F 3 "" H 7100 925 50  0001 C CNN
	1    7100 925 
	1    0    0    -1  
$EndComp
$Comp
L power:GND #PWR019
U 1 1 5BE89462
P 7100 1400
F 0 "#PWR019" H 7100 1150 50  0001 C CNN
F 1 "GND" H 7105 1227 50  0000 C CNN
F 2 "" H 7100 1400 50  0001 C CNN
F 3 "" H 7100 1400 50  0001 C CNN
	1    7100 1400
	1    0    0    -1  
$EndComp
Wire Wire Line
	7100 925  7100 1225
Wire Wire Line
	7100 1225 7200 1225
Wire Wire Line
	7200 1325 7100 1325
Wire Wire Line
	7100 1325 7100 1400
Wire Wire Line
	7000 1125 7200 1125
Wire Wire Line
	7000 1025 7200 1025
$Comp
L conn:Conn_01x04 J8
U 1 1 5BE8946E
P 7400 2100
F 0 "J8" H 7375 2300 50  0000 L CNN
F 1 "I2C_50" H 7275 1775 50  0000 L CNN
F 2 "Pin_Headers:Pin_Header_Straight_1x04_Pitch2.00mm" H 7400 2100 50  0001 C CNN
F 3 "~" H 7400 2100 50  0001 C CNN
	1    7400 2100
	1    0    0    -1  
$EndComp
Text GLabel 7000 2100 0    50   Input ~ 0
SDA_50
Text GLabel 7000 2000 0    50   Input ~ 0
SCL_50
$Comp
L power:GND #PWR021
U 1 1 5BE89476
P 7100 2375
F 0 "#PWR021" H 7100 2125 50  0001 C CNN
F 1 "GND" H 7105 2202 50  0000 C CNN
F 2 "" H 7100 2375 50  0001 C CNN
F 3 "" H 7100 2375 50  0001 C CNN
	1    7100 2375
	1    0    0    -1  
$EndComp
Wire Wire Line
	7100 1900 7100 2200
Wire Wire Line
	7100 2200 7200 2200
Wire Wire Line
	7200 2300 7100 2300
Wire Wire Line
	7100 2300 7100 2375
Wire Wire Line
	7000 2100 7200 2100
Wire Wire Line
	7000 2000 7200 2000
$Comp
L power:VCC #PWR020
U 1 1 5BE89482
P 7100 1900
F 0 "#PWR020" H 7100 1750 50  0001 C CNN
F 1 "VCC" H 7117 2073 50  0000 C CNN
F 2 "" H 7100 1900 50  0001 C CNN
F 3 "" H 7100 1900 50  0001 C CNN
	1    7100 1900
	1    0    0    -1  
$EndComp
$Comp
L conn:Conn_01x04 J9
U 1 1 5BE89488
P 8375 1125
F 0 "J9" H 8350 1325 50  0000 L CNN
F 1 "I2C_33" H 8250 800 50  0000 L CNN
F 2 "Pin_Headers:Pin_Header_Straight_1x04_Pitch2.00mm" H 8375 1125 50  0001 C CNN
F 3 "~" H 8375 1125 50  0001 C CNN
	1    8375 1125
	1    0    0    -1  
$EndComp
Text GLabel 7975 1125 0    50   Input ~ 0
SDA_33
Text GLabel 7975 1025 0    50   Input ~ 0
SCL_33
$Comp
L power:+3.3V #PWR022
U 1 1 5BE89490
P 8075 925
F 0 "#PWR022" H 8075 775 50  0001 C CNN
F 1 "+3.3V" H 8090 1098 50  0000 C CNN
F 2 "" H 8075 925 50  0001 C CNN
F 3 "" H 8075 925 50  0001 C CNN
	1    8075 925 
	1    0    0    -1  
$EndComp
$Comp
L power:GND #PWR023
U 1 1 5BE89496
P 8075 1400
F 0 "#PWR023" H 8075 1150 50  0001 C CNN
F 1 "GND" H 8080 1227 50  0000 C CNN
F 2 "" H 8075 1400 50  0001 C CNN
F 3 "" H 8075 1400 50  0001 C CNN
	1    8075 1400
	1    0    0    -1  
$EndComp
Wire Wire Line
	8075 925  8075 1225
Wire Wire Line
	8075 1225 8175 1225
Wire Wire Line
	8175 1325 8075 1325
Wire Wire Line
	8075 1325 8075 1400
Wire Wire Line
	7975 1125 8175 1125
Wire Wire Line
	7975 1025 8175 1025
$Comp
L conn:Conn_01x04 J10
U 1 1 5BE894A2
P 8375 2100
F 0 "J10" H 8350 2300 50  0000 L CNN
F 1 "I2C_50" H 8250 1775 50  0000 L CNN
F 2 "Pin_Headers:Pin_Header_Straight_1x04_Pitch2.00mm" H 8375 2100 50  0001 C CNN
F 3 "~" H 8375 2100 50  0001 C CNN
	1    8375 2100
	1    0    0    -1  
$EndComp
Text GLabel 7975 2100 0    50   Input ~ 0
SDA_50
Text GLabel 7975 2000 0    50   Input ~ 0
SCL_50
$Comp
L power:GND #PWR025
U 1 1 5BE894AA
P 8075 2375
F 0 "#PWR025" H 8075 2125 50  0001 C CNN
F 1 "GND" H 8080 2202 50  0000 C CNN
F 2 "" H 8075 2375 50  0001 C CNN
F 3 "" H 8075 2375 50  0001 C CNN
	1    8075 2375
	1    0    0    -1  
$EndComp
Wire Wire Line
	8075 1900 8075 2200
Wire Wire Line
	8075 2200 8175 2200
Wire Wire Line
	8175 2300 8075 2300
Wire Wire Line
	8075 2300 8075 2375
Wire Wire Line
	7975 2100 8175 2100
Wire Wire Line
	7975 2000 8175 2000
$Comp
L power:VCC #PWR024
U 1 1 5BE894B6
P 8075 1900
F 0 "#PWR024" H 8075 1750 50  0001 C CNN
F 1 "VCC" H 8092 2073 50  0000 C CNN
F 2 "" H 8075 1900 50  0001 C CNN
F 3 "" H 8075 1900 50  0001 C CNN
	1    8075 1900
	1    0    0    -1  
$EndComp
$Comp
L conn:Conn_01x02 J2
U 1 1 5BE8BC07
P 875 2550
F 0 "J2" H 795 2767 50  0000 C CNN
F 1 "PWR" H 795 2676 50  0000 C CNN
F 2 "suf_connector_ncw:CONN_NCW254-02S" H 875 2550 50  0001 C CNN
F 3 "~" H 875 2550 50  0001 C CNN
	1    875  2550
	-1   0    0    -1  
$EndComp
$Comp
L Device:C C1
U 1 1 5BE8BCA3
P 1725 2925
F 0 "C1" H 1840 2971 50  0000 L CNN
F 1 "100nF" H 1840 2880 50  0000 L CNN
F 2 "Capacitors_SMD:C_0603_HandSoldering" H 1763 2775 50  0001 C CNN
F 3 "~" H 1725 2925 50  0001 C CNN
	1    1725 2925
	1    0    0    -1  
$EndComp
$Comp
L Device:C C2
U 1 1 5BE8BD5D
P 2200 2925
F 0 "C2" H 2315 2971 50  0000 L CNN
F 1 "100nF" H 2315 2880 50  0000 L CNN
F 2 "Capacitors_SMD:C_0603_HandSoldering" H 2238 2775 50  0001 C CNN
F 3 "~" H 2200 2925 50  0001 C CNN
	1    2200 2925
	1    0    0    -1  
$EndComp
$Comp
L power:GND #PWR06
U 1 1 5BE8BDF7
P 1725 3175
F 0 "#PWR06" H 1725 2925 50  0001 C CNN
F 1 "GND" H 1730 3002 50  0000 C CNN
F 2 "" H 1725 3175 50  0001 C CNN
F 3 "" H 1725 3175 50  0001 C CNN
	1    1725 3175
	1    0    0    -1  
$EndComp
$Comp
L power:GND #PWR08
U 1 1 5BE8BE32
P 2200 3175
F 0 "#PWR08" H 2200 2925 50  0001 C CNN
F 1 "GND" H 2205 3002 50  0000 C CNN
F 2 "" H 2200 3175 50  0001 C CNN
F 3 "" H 2200 3175 50  0001 C CNN
	1    2200 3175
	1    0    0    -1  
$EndComp
$Comp
L power:VCC #PWR07
U 1 1 5BE8BE6D
P 2200 2675
F 0 "#PWR07" H 2200 2525 50  0001 C CNN
F 1 "VCC" H 2217 2848 50  0000 C CNN
F 2 "" H 2200 2675 50  0001 C CNN
F 3 "" H 2200 2675 50  0001 C CNN
	1    2200 2675
	1    0    0    -1  
$EndComp
$Comp
L power:+3.3V #PWR05
U 1 1 5BE8BEE2
P 1725 2675
F 0 "#PWR05" H 1725 2525 50  0001 C CNN
F 1 "+3.3V" H 1740 2848 50  0000 C CNN
F 2 "" H 1725 2675 50  0001 C CNN
F 3 "" H 1725 2675 50  0001 C CNN
	1    1725 2675
	1    0    0    -1  
$EndComp
$Comp
L power:VCC #PWR01
U 1 1 5BE8BF1D
P 1200 2425
F 0 "#PWR01" H 1200 2275 50  0001 C CNN
F 1 "VCC" H 1217 2598 50  0000 C CNN
F 2 "" H 1200 2425 50  0001 C CNN
F 3 "" H 1200 2425 50  0001 C CNN
	1    1200 2425
	1    0    0    -1  
$EndComp
$Comp
L power:GND #PWR02
U 1 1 5BE8BF58
P 1200 2750
F 0 "#PWR02" H 1200 2500 50  0001 C CNN
F 1 "GND" H 1205 2577 50  0000 C CNN
F 2 "" H 1200 2750 50  0001 C CNN
F 3 "" H 1200 2750 50  0001 C CNN
	1    1200 2750
	1    0    0    -1  
$EndComp
Wire Wire Line
	1200 2425 1200 2550
Wire Wire Line
	1200 2550 1075 2550
Wire Wire Line
	1075 2650 1200 2650
Wire Wire Line
	1200 2650 1200 2750
Wire Wire Line
	1725 2675 1725 2775
Wire Wire Line
	2200 2675 2200 2775
Wire Wire Line
	1725 3075 1725 3175
Wire Wire Line
	2200 3075 2200 3175
$EndSCHEMATC
